non_pipelined/testbenches/mem_instr.vcd
$date
	Fri Jan  8 14:49:54 2021
$end
$version
	Icarus Verilog
$end
$timescale
	1s
$end
$scope module mem_instr_tb $end
$var wire 16 ! out [15:0] $end
$var reg 16 " addr [15:0] $end
$var reg 1 # rst $end
$var integer 32 $ i [31:0] $end
$scope module dut $end
$var wire 16 % addr [15:0] $end
$var wire 1 # rst $end
$var wire 16 & out [15:0] $end
$var wire 8 ' addr_trunc [7:0] $end
$upscope $end
$upscope $end
$enddefinitions $end
#0
$dumpvars
bx '
bx &
bx %
bx $
1#
bx "
bx !
$end
#1
b1000000000100000 !
b1000000000100000 &
b0 '
b0 "
b0 %
b0 $
0#
#2
b10000000000000 !
b10000000000000 &
b1 '
b1 "
b1 %
b1 $
#3
b1010 !
b1010 &
b10 '
b10 "
b10 %
b10 $
#4
b101000000100 !
b101000000100 &
b11 '
b11 "
b11 %
b11 $
#5
b10001000000 !
b10001000000 &
b100 '
b100 "
b100 %
b100 $
#6
b100000000001000 !
b100000000001000 &
b101 '
b101 "
b101 %
b101 $
#7
b100000000000 !
b100000000000 &
b110 '
b110 "
b110 %
b110 $
#8
b0xxxxxxxx !
b0xxxxxxxx &
b111 '
b111 "
b111 %
b111 $
#9
bx !
bx &
b1000 '
b1000 "
b1000 %
b1000 $
#10
b1001 '
b1001 "
b1001 %
b1001 $
#11
b1010 '
b1010 "
b1010 %
b1010 $
#12
b1011 '
b1011 "
b1011 %
b1011 $
#13
b1100 '
b1100 "
b1100 %
b1100 $
#14
b1101 '
b1101 "
b1101 %
b1101 $
#15
b1110 '
b1110 "
b1110 %
b1110 $
#16
b1111 '
b1111 "
b1111 %
b1111 $
#17
b10000 '
b10000 "
b10000 %
b10000 $
#18
b10001 '
b10001 "
b10001 %
b10001 $
#19
b10010 '
b10010 "
b10010 %
b10010 $
#20
b10011 '
b10011 "
b10011 %
b10011 $
#21
b10100 '
b10100 "
b10100 %
b10100 $
#22
b10101 '
b10101 "
b10101 %
b10101 $
#23
b10110 '
b10110 "
b10110 %
b10110 $
#24
b10111 '
b10111 "
b10111 %
b10111 $
#25
b11000 '
b11000 "
b11000 %
b11000 $
#26
b11001 '
b11001 "
b11001 %
b11001 $
#27
b11010 '
b11010 "
b11010 %
b11010 $
#28
b11011 '
b11011 "
b11011 %
b11011 $
#29
b11100 '
b11100 "
b11100 %
b11100 $
#30
b11101 '
b11101 "
b11101 %
b11101 $
#31
b11110 '
b11110 "
b11110 %
b11110 $
#32
b11111 '
b11111 "
b11111 %
b11111 $
#33
b100000 '
b100000 "
b100000 %
b100000 $
#34
b100001 '
b100001 "
b100001 %
b100001 $
#35
b100010 '
b100010 "
b100010 %
b100010 $
#36
b100011 '
b100011 "
b100011 %
b100011 $
#37
b100100 '
b100100 "
b100100 %
b100100 $
#38
b100101 '
b100101 "
b100101 %
b100101 $
#39
b100110 '
b100110 "
b100110 %
b100110 $
#40
b100111 '
b100111 "
b100111 %
b100111 $
#41
b101000 '
b101000 "
b101000 %
b101000 $
#42
b101001 '
b101001 "
b101001 %
b101001 $
#43
b101010 '
b101010 "
b101010 %
b101010 $
#44
b101011 '
b101011 "
b101011 %
b101011 $
#45
b101100 '
b101100 "
b101100 %
b101100 $
#46
b101101 '
b101101 "
b101101 %
b101101 $
#47
b101110 '
b101110 "
b101110 %
b101110 $
#48
b101111 '
b101111 "
b101111 %
b101111 $
#49
b110000 '
b110000 "
b110000 %
b110000 $
#50
b110001 '
b110001 "
b110001 %
b110001 $
#51
b110010 '
b110010 "
b110010 %
b110010 $
#52
b110011 '
b110011 "
b110011 %
b110011 $
#53
b110100 '
b110100 "
b110100 %
b110100 $
#54
b110101 '
b110101 "
b110101 %
b110101 $
#55
b110110 '
b110110 "
b110110 %
b110110 $
#56
b110111 '
b110111 "
b110111 %
b110111 $
#57
b111000 '
b111000 "
b111000 %
b111000 $
#58
b111001 '
b111001 "
b111001 %
b111001 $
#59
b111010 '
b111010 "
b111010 %
b111010 $
#60
b111011 '
b111011 "
b111011 %
b111011 $
#61
b111100 '
b111100 "
b111100 %
b111100 $
#62
b111101 '
b111101 "
b111101 %
b111101 $
#63
b111110 '
b111110 "
b111110 %
b111110 $
#64
b111111 '
b111111 "
b111111 %
b111111 $
#65
b1000000 '
b1000000 "
b1000000 %
b1000000 $
#66
b1000001 '
b1000001 "
b1000001 %
b1000001 $
#67
b1000010 '
b1000010 "
b1000010 %
b1000010 $
#68
b1000011 '
b1000011 "
b1000011 %
b1000011 $
#69
b1000100 '
b1000100 "
b1000100 %
b1000100 $
#70
b1000101 '
b1000101 "
b1000101 %
b1000101 $
#71
b1000110 '
b1000110 "
b1000110 %
b1000110 $
#72
b1000111 '
b1000111 "
b1000111 %
b1000111 $
#73
b1001000 '
b1001000 "
b1001000 %
b1001000 $
#74
b1001001 '
b1001001 "
b1001001 %
b1001001 $
#75
b1001010 '
b1001010 "
b1001010 %
b1001010 $
#76
b1001011 '
b1001011 "
b1001011 %
b1001011 $
#77
b1001100 '
b1001100 "
b1001100 %
b1001100 $
#78
b1001101 '
b1001101 "
b1001101 %
b1001101 $
#79
b1001110 '
b1001110 "
b1001110 %
b1001110 $
#80
b1001111 '
b1001111 "
b1001111 %
b1001111 $
#81
b1010000 '
b1010000 "
b1010000 %
b1010000 $
#82
b1010001 '
b1010001 "
b1010001 %
b1010001 $
#83
b1010010 '
b1010010 "
b1010010 %
b1010010 $
#84
b1010011 '
b1010011 "
b1010011 %
b1010011 $
#85
b1010100 '
b1010100 "
b1010100 %
b1010100 $
#86
b1010101 '
b1010101 "
b1010101 %
b1010101 $
#87
b1010110 '
b1010110 "
b1010110 %
b1010110 $
#88
b1010111 '
b1010111 "
b1010111 %
b1010111 $
#89
b1011000 '
b1011000 "
b1011000 %
b1011000 $
#90
b1011001 '
b1011001 "
b1011001 %
b1011001 $
#91
b1011010 '
b1011010 "
b1011010 %
b1011010 $
#92
b1011011 '
b1011011 "
b1011011 %
b1011011 $
#93
b1011100 '
b1011100 "
b1011100 %
b1011100 $
#94
b1011101 '
b1011101 "
b1011101 %
b1011101 $
#95
b1011110 '
b1011110 "
b1011110 %
b1011110 $
#96
b1011111 '
b1011111 "
b1011111 %
b1011111 $
#97
b1100000 '
b1100000 "
b1100000 %
b1100000 $
#98
b1100001 '
b1100001 "
b1100001 %
b1100001 $
#99
b1100010 '
b1100010 "
b1100010 %
b1100010 $
#100
b1100011 '
b1100011 "
b1100011 %
b1100011 $
#101
b1100100 $
