non_pipelined/test.vcd
$date
	Thu Feb  4 12:56:47 2021
$end
$version
	Icarus Verilog
$end
$timescale
	1s
$end
$scope module tb $end
$var reg 1 ! clk $end
$var reg 1 " reset $end
$var integer 32 # i [31:0] $end
$scope module dut $end
$var wire 1 ! clk $end
$var wire 1 " reset $end
$var wire 3 $ reg_tgt_addr [2:0] $end
$var wire 3 % reg_src2_addr [2:0] $end
$var wire 16 & reg_src2 [15:0] $end
$var wire 3 ' reg_src1_addr [2:0] $end
$var wire 16 ( reg_src1 [15:0] $end
$var wire 16 ) reg_in [15:0] $end
$var wire 3 * opcode [2:0] $end
$var wire 16 + next_pc [15:0] $end
$var wire 16 , mem_dataOut [15:0] $end
$var wire 16 - instr [15:0] $end
$var wire 1 . alu_stat $end
$var wire 16 / alu_out [15:0] $end
$var wire 16 0 alu_inb [15:0] $end
$var wire 16 1 alu_ina [15:0] $end
$var reg 2 2 alu_funct [1:0] $end
$var reg 1 3 mem_writeEn $end
$var reg 1 4 mux_alua $end
$var reg 1 5 mux_alub $end
$var reg 2 6 mux_pc [1:0] $end
$var reg 1 7 mux_rt $end
$var reg 2 8 mux_tgt [1:0] $end
$var reg 1 9 reg_writeEn $end
$scope module decode_stage $end
$var wire 1 4 mux_outa $end
$var wire 1 5 mux_outb $end
$var wire 1 7 mux_rt $end
$var wire 3 : src1_addr [2:0] $end
$var wire 3 ; tgt_addr [2:0] $end
$var wire 3 < src2_addr [2:0] $end
$var wire 16 = src2 [15:0] $end
$var wire 16 > src1 [15:0] $end
$var wire 16 ? sig_imm [15:0] $end
$var wire 3 @ regC [2:0] $end
$var wire 3 A regB [2:0] $end
$var wire 3 B regA [2:0] $end
$var wire 16 C outb [15:0] $end
$var wire 16 D outa [15:0] $end
$var wire 16 E instr [15:0] $end
$var wire 16 F imm [15:0] $end
$upscope $end
$scope module exec_stage $end
$var wire 2 G funct [1:0] $end
$var wire 16 H ina [15:0] $end
$var wire 16 I inb [15:0] $end
$var wire 1 . stat $end
$var reg 16 J out [15:0] $end
$upscope $end
$scope module fetch_stage $end
$var wire 16 K alu_out [15:0] $end
$var wire 1 ! clk $end
$var wire 2 L mux_pc [1:0] $end
$var wire 1 " reset $end
$var wire 16 M sig_imm [15:0] $end
$var wire 16 N next_pc [15:0] $end
$var wire 16 O next_instr [15:0] $end
$var wire 16 P branch_pc [15:0] $end
$var reg 16 Q instr [15:0] $end
$var reg 16 R pc [15:0] $end
$scope module d $end
$var wire 16 S addr [15:0] $end
$var wire 1 " rst $end
$var wire 16 T out [15:0] $end
$var wire 10 U addr_trunc [9:0] $end
$upscope $end
$upscope $end
$scope module mem_stage $end
$var wire 16 V address [15:0] $end
$var wire 1 ! clk $end
$var wire 1 " rst $end
$var wire 1 3 writeEn $end
$var wire 16 W dataOut [15:0] $end
$var wire 16 X dataIn [15:0] $end
$var wire 10 Y address_trunc [9:0] $end
$var integer 32 Z i [31:0] $end
$upscope $end
$scope module reg_file $end
$var wire 1 ! clk $end
$var wire 16 [ out1 [15:0] $end
$var wire 16 \ out2 [15:0] $end
$var wire 1 " rst $end
$var wire 3 ] src1 [2:0] $end
$var wire 3 ^ src2 [2:0] $end
$var wire 3 _ tgt [2:0] $end
$var wire 1 9 writeEn $end
$var wire 16 ` in [15:0] $end
$var integer 32 a i [31:0] $end
$scope begin write_block $end
$upscope $end
$upscope $end
$scope module writeback_stage $end
$var wire 16 b alu_out [15:0] $end
$var wire 16 c data_out [15:0] $end
$var wire 2 d mux_tgt [1:0] $end
$var wire 16 e pc_next [15:0] $end
$var reg 16 f tgt [15:0] $end
$upscope $end
$upscope $end
$upscope $end
$scope module tb $end
$scope module dut $end
$scope module reg_file $end
$var reg 16 g \memory[0] [15:0] $end
$upscope $end
$upscope $end
$upscope $end
$scope module tb $end
$scope module dut $end
$scope module reg_file $end
$var reg 16 h \memory[1] [15:0] $end
$upscope $end
$upscope $end
$upscope $end
$scope module tb $end
$scope module dut $end
$scope module reg_file $end
$var reg 16 i \memory[2] [15:0] $end
$upscope $end
$upscope $end
$upscope $end
$scope module tb $end
$scope module dut $end
$scope module reg_file $end
$var reg 16 j \memory[3] [15:0] $end
$upscope $end
$upscope $end
$upscope $end
$scope module tb $end
$scope module dut $end
$scope module reg_file $end
$var reg 16 k \memory[4] [15:0] $end
$upscope $end
$upscope $end
$upscope $end
$scope module tb $end
$scope module dut $end
$scope module reg_file $end
$var reg 16 l \memory[5] [15:0] $end
$upscope $end
$upscope $end
$upscope $end
$scope module tb $end
$scope module dut $end
$scope module reg_file $end
$var reg 16 m \memory[6] [15:0] $end
$upscope $end
$upscope $end
$upscope $end
$scope module tb $end
$scope module dut $end
$scope module reg_file $end
$var reg 16 n \memory[7] [15:0] $end
$upscope $end
$upscope $end
$upscope $end
$scope module tb $end
$scope module dut $end
$scope module fetch_stage $end
$scope module d $end
$var reg 8 o \memory[0] [7:0] $end
$upscope $end
$upscope $end
$upscope $end
$upscope $end
$scope module tb $end
$scope module dut $end
$scope module fetch_stage $end
$scope module d $end
$var reg 8 p \memory[1] [7:0] $end
$upscope $end
$upscope $end
$upscope $end
$upscope $end
$scope module tb $end
$scope module dut $end
$scope module fetch_stage $end
$scope module d $end
$var reg 8 q \memory[2] [7:0] $end
$upscope $end
$upscope $end
$upscope $end
$upscope $end
$scope module tb $end
$scope module dut $end
$scope module fetch_stage $end
$scope module d $end
$var reg 8 r \memory[3] [7:0] $end
$upscope $end
$upscope $end
$upscope $end
$upscope $end
$scope module tb $end
$scope module dut $end
$scope module fetch_stage $end
$scope module d $end
$var reg 8 s \memory[4] [7:0] $end
$upscope $end
$upscope $end
$upscope $end
$upscope $end
$scope module tb $end
$scope module dut $end
$scope module fetch_stage $end
$scope module d $end
$var reg 8 t \memory[5] [7:0] $end
$upscope $end
$upscope $end
$upscope $end
$upscope $end
$scope module tb $end
$scope module dut $end
$scope module fetch_stage $end
$scope module d $end
$var reg 8 u \memory[6] [7:0] $end
$upscope $end
$upscope $end
$upscope $end
$upscope $end
$scope module tb $end
$scope module dut $end
$scope module fetch_stage $end
$scope module d $end
$var reg 8 v \memory[7] [7:0] $end
$upscope $end
$upscope $end
$upscope $end
$upscope $end
$scope module tb $end
$scope module dut $end
$scope module fetch_stage $end
$scope module d $end
$var reg 8 w \memory[8] [7:0] $end
$upscope $end
$upscope $end
$upscope $end
$upscope $end
$scope module tb $end
$scope module dut $end
$scope module fetch_stage $end
$scope module d $end
$var reg 8 x \memory[9] [7:0] $end
$upscope $end
$upscope $end
$upscope $end
$upscope $end
$enddefinitions $end
#0
$dumpvars
b1111011 x
b11001100 w
b1 v
b1101 u
b10000001 t
b100100 s
b1110110 r
b101000 q
b0 p
b100100 o
b0 n
b0 m
b0 l
b0 k
b0 j
b0 i
b0 h
b0 g
bx f
bx e
bx d
bx c
bx b
b1000 a
bx `
bx _
bx ^
bx ]
bx \
bx [
b111110100 Z
bx Y
bx X
bx W
bx V
bx U
bx T
bx S
bx R
bx Q
bx P
bx O
bx N
bx M
bx L
bx K
bx J
bx I
bx H
bx G
bx000000 F
bx E
bx D
bx C
bx B
bx A
bx @
bx ?
bx >
bx =
bx <
bx ;
bx :
x9
bx 8
x7
bx 6
x5
x4
x3
bx 2
bx 1
bx 0
bx /
x.
bx -
bx ,
bx +
bx *
bx )
bx (
bx '
bx &
bx %
bx $
b1010 #
1"
0!
$end
#1
b0 )
b0 `
b0 f
b0 ,
b0 W
b0 c
b0 Y
1.
b0 /
b0 J
b0 K
b0 V
b0 b
03
19
b1 8
b1 d
17
05
14
b0 6
b0 L
b0 2
b0 G
b10 P
b0 F
b0 0
b0 C
b0 I
b0 1
b0 D
b0 H
b0 &
b0 =
b0 X
b0 \
b0 %
b0 <
b0 ^
b0 M
b0 ?
b0 @
b0 (
b0 >
b0 [
b0 '
b0 :
b0 ]
b0 A
b1 $
b1 ;
b1 _
b1 B
b1 *
b10010000000000 O
b10010000000000 T
b0 U
b10010000000000 -
b10010000000000 E
b10010000000000 Q
b10 +
b10 N
b10 e
b0 R
b0 S
1!
#2
b0 h
0!
0"
#3
b1111111111110110 )
b1111111111110110 `
b1111111111110110 f
bx ,
bx W
bx c
b1111110110 Y
0.
b1111111111110110 /
b1111111111110110 J
b1111111111110110 K
b1111111111110110 V
b1111111111110110 b
b1110110000000 F
b1111111111110110 0
b1111111111110110 C
b1111111111110110 I
b110 %
b110 <
b110 ^
b1111111111110110 M
b1111111111110110 ?
b110 @
b10 $
b10 ;
b10 _
b10 B
b10100001110110 -
b10100001110110 E
b10100001110110 Q
b10100001110110 O
b10100001110110 T
b10 U
b1111111111110000 P
b100 +
b100 N
b100 e
b10 R
b10 S
1!
#4
b1111111111110110 i
0!
#5
b1 )
b1 `
b1 f
b0 ,
b0 W
b0 c
b1 Y
b1 /
b1 J
b1 K
b1 V
b1 b
b10000001000000 F
b1 0
b1 C
b1 I
b1 %
b1 <
b1 ^
b1 M
b1 ?
b1 @
b1 '
b1 :
b1 ]
b1 A
b1 $
b1 ;
b1 _
b1 B
b10010010000001 -
b10010010000001 E
b10010010000001 Q
b10010010000001 O
b10010010000001 T
b100 U
b1000 P
b110 +
b110 N
b110 e
b100 R
b100 S
1!
#6
b10 )
b10 `
b10 f
b10 Y
b10 /
b10 J
b10 K
b10 V
b10 b
b1 1
b1 D
b1 H
b1 h
b1 (
b1 >
b1 [
b1 &
b1 =
b1 X
b1 \
0!
#7
b1111111111110111 )
b1111111111110111 `
b1111111111110111 f
bx ,
bx W
bx c
b1111110111 Y
b1111111111110111 /
b1111111111110111 J
b1111111111110111 K
b1111111111110111 V
b1111111111110111 b
15
b100000001000000 F
b1111111111110110 1
b1111111111110110 D
b1111111111110110 H
b1111111111110110 (
b1111111111110110 >
b1111111111110110 [
b10 '
b10 :
b10 ]
b10 A
b11 $
b11 ;
b11 _
b11 B
b0 *
b110100000001 -
b110100000001 E
b110100000001 Q
b110100000001 O
b110100000001 T
b110 U
b1010 P
b1000 +
b1000 N
b1000 e
b110 R
b110 S
1!
#8
b1111111111110111 j
0!
#9
b1001 )
b1001 `
b1001 f
b0 ,
b0 W
b0 c
b1001 Y
b1001 /
b1001 J
b1001 K
b1001 V
b1001 b
09
07
b11 2
b11 G
b1111111111110111 0
b1111111111110111 C
b1111111111110111 I
b1111011000000 F
b1111111111110111 &
b1111111111110111 =
b1111111111110111 X
b1111111111110111 \
b11 %
b11 <
b11 ^
b0 1
b0 D
b0 H
b1111111111111011 M
b1111111111111011 ?
b11 @
b0 (
b0 >
b0 [
b0 '
b0 :
b0 ]
b0 A
b110 *
b1100110001111011 -
b1100110001111011 E
b1100110001111011 Q
b1100110001111011 O
b1100110001111011 T
b1000 U
b0 P
b1010 +
b1010 N
b1010 e
b1000 R
b1000 S
1!
#10
0!
#11
b100 )
b100 `
b100 f
b100 Y
0.
b100 /
b100 J
b100 K
b100 V
b100 b
19
17
05
b0 2
b0 G
b100 0
b100 C
b100 I
b100000000 F
b0 &
b0 =
b0 X
b0 \
b100 %
b100 <
b100 ^
b100 M
b100 ?
b100 @
b101 $
b101 ;
b101 _
b101 B
b1 *
b11010000000100 -
b11010000000100 E
b11010000000100 Q
b11010000000100 O
b11010000000100 T
b1010 U
b10100 P
b1100 +
b1100 N
b1100 e
b1010 R
b1010 S
1!
#12
b100 l
0!
#13
07
15
b10 6
b10 L
b10 2
b10 G
b1010000000000000 F
b0 0
b0 C
b0 I
b100 %
b100 <
b100 ^
b100 1
b100 D
b100 H
b0 M
b0 ?
b0 @
b100 (
b100 >
b100 [
b101 '
b101 :
b101 ]
b101 A
b100 $
b100 ;
b100 _
b100 B
b111 *
b1111001010000000 -
b1111001010000000 E
b1111001010000000 Q
b1111001010000000 O
b1111001010000000 T
b1100 U
b1110 P
b1110 +
b1110 N
b1110 e
b1100 R
b1100 S
1!
#14
b100 0
b100 C
b100 I
b100 k
b100 &
b100 =
b100 X
b100 \
0!
#15
b10 )
b10 `
b10 f
b10 Y
b10 /
b10 J
b10 K
b10 V
b10 b
17
05
b0 6
b0 L
b0 2
b0 G
b1 0
b1 C
b1 I
b10000001000000 F
b1 1
b1 D
b1 H
b1 &
b1 =
b1 X
b1 \
b1 %
b1 <
b1 ^
b1 M
b1 ?
b1 @
b1 (
b1 >
b1 [
b1 '
b1 :
b1 ]
b1 A
b1 $
b1 ;
b1 _
b1 B
b1 *
b10010010000001 -
b10010010000001 E
b10010010000001 Q
b10010010000001 O
b10010010000001 T
b100 U
b1000 P
b110 +
b110 N
b110 e
b100 R
b100 S
1!
#16
b11 )
b11 `
b11 f
b11 Y
b11 /
b11 J
b11 K
b11 V
b11 b
b10 1
b10 D
b10 H
b10 h
b10 (
b10 >
b10 [
b10 &
b10 =
b10 X
b10 \
0!
#17
b1111111111111000 )
b1111111111111000 `
b1111111111111000 f
bx ,
bx W
bx c
b1111111000 Y
b10 0
b10 C
b10 I
b1111111111111000 /
b1111111111111000 J
b1111111111111000 K
b1111111111111000 V
b1111111111111000 b
15
b100000001000000 F
b1111111111110110 1
b1111111111110110 D
b1111111111110110 H
b1111111111110110 (
b1111111111110110 >
b1111111111110110 [
b10 '
b10 :
b10 ]
b10 A
b11 $
b11 ;
b11 _
b11 B
b0 *
b110100000001 -
b110100000001 E
b110100000001 Q
b110100000001 O
b110100000001 T
b110 U
b1010 P
b1000 +
b1000 N
b1000 e
b110 R
b110 S
1!
#18
b1111111111111000 j
0!
#19
b1000 )
b1000 `
b1000 f
b0 ,
b0 W
b0 c
b1000 Y
b1000 /
b1000 J
b1000 K
b1000 V
b1000 b
09
07
b11 2
b11 G
b1111111111111000 0
b1111111111111000 C
b1111111111111000 I
b1111011000000 F
b1111111111111000 &
b1111111111111000 =
b1111111111111000 X
b1111111111111000 \
b11 %
b11 <
b11 ^
b0 1
b0 D
b0 H
b1111111111111011 M
b1111111111111011 ?
b11 @
b0 (
b0 >
b0 [
b0 '
b0 :
b0 ]
b0 A
b110 *
b1100110001111011 -
b1100110001111011 E
b1100110001111011 Q
b1100110001111011 O
b1100110001111011 T
b1000 U
b0 P
b1010 +
b1010 N
b1010 e
b1000 R
b1000 S
1!
#20
0!
#21
b100 )
b100 `
b100 f
b0 ,
b0 W
b0 c
b100 Y
b100 /
b100 J
b100 K
b100 V
b100 b
19
17
05
b0 2
b0 G
b100 0
b100 C
b100 I
b100000000 F
b100 &
b100 =
b100 X
b100 \
b100 %
b100 <
b100 ^
b100 M
b100 ?
b100 @
b101 $
b101 ;
b101 _
b101 B
b1 *
b11010000000100 -
b11010000000100 E
b11010000000100 Q
b11010000000100 O
b11010000000100 T
b1010 U
b10100 P
b1100 +
b1100 N
b1100 e
b1010 R
b1010 S
1!
#22
b100 l
0!
#23
07
15
b10 6
b10 L
b10 2
b10 G
b1010000000000000 F
b100 0
b100 C
b100 I
b100 &
b100 =
b100 X
b100 \
b100 %
b100 <
b100 ^
b100 1
b100 D
b100 H
b0 M
b0 ?
b0 @
b100 (
b100 >
b100 [
b101 '
b101 :
b101 ]
b101 A
b100 $
b100 ;
b100 _
b100 B
b111 *
b1111001010000000 -
b1111001010000000 E
b1111001010000000 Q
b1111001010000000 O
b1111001010000000 T
b1100 U
b1110 P
b1110 +
b1110 N
b1110 e
b1100 R
b1100 S
1!
#24
b100 k
0!
#25
b11 )
b11 `
b11 f
b11 Y
b11 /
b11 J
b11 K
b11 V
b11 b
17
05
b0 6
b0 L
b0 2
b0 G
b1 0
b1 C
b1 I
b10000001000000 F
b10 1
b10 D
b10 H
b10 &
b10 =
b10 X
b10 \
b1 %
b1 <
b1 ^
b1 M
b1 ?
b1 @
b10 (
b10 >
b10 [
b1 '
b1 :
b1 ]
b1 A
b1 $
b1 ;
b1 _
b1 B
b1 *
b10010010000001 -
b10010010000001 E
b10010010000001 Q
b10010010000001 O
b10010010000001 T
b100 U
b1000 P
b110 +
b110 N
b110 e
b100 R
b100 S
1!
#26
b100 )
b100 `
b100 f
b100 Y
b100 /
b100 J
b100 K
b100 V
b100 b
b11 1
b11 D
b11 H
b11 h
b11 (
b11 >
b11 [
b11 &
b11 =
b11 X
b11 \
0!
#27
b1111111111111001 )
b1111111111111001 `
b1111111111111001 f
bx ,
bx W
bx c
b1111111001 Y
b11 0
b11 C
b11 I
b1111111111111001 /
b1111111111111001 J
b1111111111111001 K
b1111111111111001 V
b1111111111111001 b
15
b100000001000000 F
b1111111111110110 1
b1111111111110110 D
b1111111111110110 H
b1111111111110110 (
b1111111111110110 >
b1111111111110110 [
b10 '
b10 :
b10 ]
b10 A
b11 $
b11 ;
b11 _
b11 B
b0 *
b110100000001 -
b110100000001 E
b110100000001 Q
b110100000001 O
b110100000001 T
b110 U
b1010 P
b1000 +
b1000 N
b1000 e
b110 R
b110 S
1!
#28
b1111111111111001 j
0!
#29
b111 )
b111 `
b111 f
b0 ,
b0 W
b0 c
b111 Y
b111 /
b111 J
b111 K
b111 V
b111 b
09
07
b11 2
b11 G
b1111111111111001 0
b1111111111111001 C
b1111111111111001 I
b1111011000000 F
b1111111111111001 &
b1111111111111001 =
b1111111111111001 X
b1111111111111001 \
b11 %
b11 <
b11 ^
b0 1
b0 D
b0 H
b1111111111111011 M
b1111111111111011 ?
b11 @
b0 (
b0 >
b0 [
b0 '
b0 :
b0 ]
b0 A
b110 *
b1100110001111011 -
b1100110001111011 E
b1100110001111011 Q
b1100110001111011 O
b1100110001111011 T
b1000 U
b0 P
b1010 +
b1010 N
b1010 e
b1000 R
b1000 S
1!
#30
0!
#31
b100 )
b100 `
b100 f
b0 ,
b0 W
b0 c
b100 Y
b100 /
b100 J
b100 K
b100 V
b100 b
19
17
05
b0 2
b0 G
b100 0
b100 C
b100 I
b100000000 F
b100 &
b100 =
b100 X
b100 \
b100 %
b100 <
b100 ^
b100 M
b100 ?
b100 @
b101 $
b101 ;
b101 _
b101 B
b1 *
b11010000000100 -
b11010000000100 E
b11010000000100 Q
b11010000000100 O
b11010000000100 T
b1010 U
b10100 P
b1100 +
b1100 N
b1100 e
b1010 R
b1010 S
1!
#32
b100 l
0!
#33
07
15
b10 6
b10 L
b10 2
b10 G
b1010000000000000 F
b100 0
b100 C
b100 I
b100 &
b100 =
b100 X
b100 \
b100 %
b100 <
b100 ^
b100 1
b100 D
b100 H
b0 M
b0 ?
b0 @
b100 (
b100 >
b100 [
b101 '
b101 :
b101 ]
b101 A
b100 $
b100 ;
b100 _
b100 B
b111 *
b1111001010000000 -
b1111001010000000 E
b1111001010000000 Q
b1111001010000000 O
b1111001010000000 T
b1100 U
b1110 P
b1110 +
b1110 N
b1110 e
b1100 R
b1100 S
1!
#34
b100 k
0!
#35
b100 )
b100 `
b100 f
b100 Y
b100 /
b100 J
b100 K
b100 V
b100 b
17
05
b0 6
b0 L
b0 2
b0 G
b1 0
b1 C
b1 I
b10000001000000 F
b11 1
b11 D
b11 H
b11 &
b11 =
b11 X
b11 \
b1 %
b1 <
b1 ^
b1 M
b1 ?
b1 @
b11 (
b11 >
b11 [
b1 '
b1 :
b1 ]
b1 A
b1 $
b1 ;
b1 _
b1 B
b1 *
b10010010000001 -
b10010010000001 E
b10010010000001 Q
b10010010000001 O
b10010010000001 T
b100 U
b1000 P
b110 +
b110 N
b110 e
b100 R
b100 S
1!
#36
b101 )
b101 `
b101 f
b101 Y
b101 /
b101 J
b101 K
b101 V
b101 b
b100 1
b100 D
b100 H
b100 h
b100 (
b100 >
b100 [
b100 &
b100 =
b100 X
b100 \
0!
#37
b1111111111111010 )
b1111111111111010 `
b1111111111111010 f
bx ,
bx W
bx c
b1111111010 Y
b100 0
b100 C
b100 I
b1111111111111010 /
b1111111111111010 J
b1111111111111010 K
b1111111111111010 V
b1111111111111010 b
15
b100000001000000 F
b1111111111110110 1
b1111111111110110 D
b1111111111110110 H
b1111111111110110 (
b1111111111110110 >
b1111111111110110 [
b10 '
b10 :
b10 ]
b10 A
b11 $
b11 ;
b11 _
b11 B
b0 *
b110100000001 -
b110100000001 E
b110100000001 Q
b110100000001 O
b110100000001 T
b110 U
b1010 P
b1000 +
b1000 N
b1000 e
b110 R
b110 S
1!
#38
b1111111111111010 j
0!
#39
b110 )
b110 `
b110 f
b0 ,
b0 W
b0 c
b110 Y
b110 /
b110 J
b110 K
b110 V
b110 b
09
07
b11 2
b11 G
b1111111111111010 0
b1111111111111010 C
b1111111111111010 I
b1111011000000 F
b1111111111111010 &
b1111111111111010 =
b1111111111111010 X
b1111111111111010 \
b11 %
b11 <
b11 ^
b0 1
b0 D
b0 H
b1111111111111011 M
b1111111111111011 ?
b11 @
b0 (
b0 >
b0 [
b0 '
b0 :
b0 ]
b0 A
b110 *
b1100110001111011 -
b1100110001111011 E
b1100110001111011 Q
b1100110001111011 O
b1100110001111011 T
b1000 U
b0 P
b1010 +
b1010 N
b1010 e
b1000 R
b1000 S
1!
#40
0!
#41
b100 )
b100 `
b100 f
b0 ,
b0 W
b0 c
b100 Y
b100 /
b100 J
b100 K
b100 V
b100 b
19
17
05
b0 2
b0 G
b100 0
b100 C
b100 I
b100000000 F
b100 &
b100 =
b100 X
b100 \
b100 %
b100 <
b100 ^
b100 M
b100 ?
b100 @
b101 $
b101 ;
b101 _
b101 B
b1 *
b11010000000100 -
b11010000000100 E
b11010000000100 Q
b11010000000100 O
b11010000000100 T
b1010 U
b10100 P
b1100 +
b1100 N
b1100 e
b1010 R
b1010 S
1!
#42
b100 l
0!
#43
07
15
b10 6
b10 L
b10 2
b10 G
b1010000000000000 F
b100 0
b100 C
b100 I
b100 &
b100 =
b100 X
b100 \
b100 %
b100 <
b100 ^
b100 1
b100 D
b100 H
b0 M
b0 ?
b0 @
b100 (
b100 >
b100 [
b101 '
b101 :
b101 ]
b101 A
b100 $
b100 ;
b100 _
b100 B
b111 *
b1111001010000000 -
b1111001010000000 E
b1111001010000000 Q
b1111001010000000 O
b1111001010000000 T
b1100 U
b1110 P
b1110 +
b1110 N
b1110 e
b1100 R
b1100 S
1!
#44
b100 k
0!
#45
b101 )
b101 `
b101 f
b101 Y
b101 /
b101 J
b101 K
b101 V
b101 b
b1 0
b1 C
b1 I
17
05
b0 6
b0 L
b0 2
b0 G
b10000001000000 F
b1 %
b1 <
b1 ^
b1 M
b1 ?
b1 @
b1 '
b1 :
b1 ]
b1 A
b1 $
b1 ;
b1 _
b1 B
b1 *
b10010010000001 -
b10010010000001 E
b10010010000001 Q
b10010010000001 O
b10010010000001 T
b100 U
b1000 P
b110 +
b110 N
b110 e
b100 R
b100 S
1!
#46
b110 )
b110 `
b110 f
b110 Y
b110 /
b110 J
b110 K
b110 V
b110 b
b101 1
b101 D
b101 H
b101 h
b101 (
b101 >
b101 [
b101 &
b101 =
b101 X
b101 \
0!
#47
b1111111111111011 )
b1111111111111011 `
b1111111111111011 f
bx ,
bx W
bx c
b1111111011 Y
b101 0
b101 C
b101 I
b1111111111111011 /
b1111111111111011 J
b1111111111111011 K
b1111111111111011 V
b1111111111111011 b
15
b100000001000000 F
b1111111111110110 1
b1111111111110110 D
b1111111111110110 H
b1111111111110110 (
b1111111111110110 >
b1111111111110110 [
b10 '
b10 :
b10 ]
b10 A
b11 $
b11 ;
b11 _
b11 B
b0 *
b110100000001 -
b110100000001 E
b110100000001 Q
b110100000001 O
b110100000001 T
b110 U
b1010 P
b1000 +
b1000 N
b1000 e
b110 R
b110 S
1!
#48
b1111111111111011 j
0!
#49
b101 )
b101 `
b101 f
b0 ,
b0 W
b0 c
b101 Y
b101 /
b101 J
b101 K
b101 V
b101 b
09
07
b11 2
b11 G
b1111111111111011 0
b1111111111111011 C
b1111111111111011 I
b1111011000000 F
b1111111111111011 &
b1111111111111011 =
b1111111111111011 X
b1111111111111011 \
b11 %
b11 <
b11 ^
b0 1
b0 D
b0 H
b1111111111111011 M
b1111111111111011 ?
b11 @
b0 (
b0 >
b0 [
b0 '
b0 :
b0 ]
b0 A
b110 *
b1100110001111011 -
b1100110001111011 E
b1100110001111011 Q
b1100110001111011 O
b1100110001111011 T
b1000 U
b0 P
b1010 +
b1010 N
b1010 e
b1000 R
b1000 S
1!
#50
0!
#51
b100 )
b100 `
b100 f
b0 ,
b0 W
b0 c
b100 Y
b100 /
b100 J
b100 K
b100 V
b100 b
19
17
05
b0 2
b0 G
b100 0
b100 C
b100 I
b100000000 F
b100 &
b100 =
b100 X
b100 \
b100 %
b100 <
b100 ^
b100 M
b100 ?
b100 @
b101 $
b101 ;
b101 _
b101 B
b1 *
b11010000000100 -
b11010000000100 E
b11010000000100 Q
b11010000000100 O
b11010000000100 T
b1010 U
b10100 P
b1100 +
b1100 N
b1100 e
b1010 R
b1010 S
1!
#52
b100 l
0!
#53
07
15
b10 6
b10 L
b10 2
b10 G
b1010000000000000 F
b100 0
b100 C
b100 I
b100 &
b100 =
b100 X
b100 \
b100 %
b100 <
b100 ^
b100 1
b100 D
b100 H
b0 M
b0 ?
b0 @
b100 (
b100 >
b100 [
b101 '
b101 :
b101 ]
b101 A
b100 $
b100 ;
b100 _
b100 B
b111 *
b1111001010000000 -
b1111001010000000 E
b1111001010000000 Q
b1111001010000000 O
b1111001010000000 T
b1100 U
b1110 P
b1110 +
b1110 N
b1110 e
b1100 R
b1100 S
1!
#54
b100 k
0!
#55
b110 )
b110 `
b110 f
b110 Y
b110 /
b110 J
b110 K
b110 V
b110 b
17
05
b0 6
b0 L
b0 2
b0 G
b1 0
b1 C
b1 I
b10000001000000 F
b101 1
b101 D
b101 H
b101 &
b101 =
b101 X
b101 \
b1 %
b1 <
b1 ^
b1 M
b1 ?
b1 @
b101 (
b101 >
b101 [
b1 '
b1 :
b1 ]
b1 A
b1 $
b1 ;
b1 _
b1 B
b1 *
b10010010000001 -
b10010010000001 E
b10010010000001 Q
b10010010000001 O
b10010010000001 T
b100 U
b1000 P
b110 +
b110 N
b110 e
b100 R
b100 S
1!
#56
b111 )
b111 `
b111 f
b111 Y
b111 /
b111 J
b111 K
b111 V
b111 b
b110 1
b110 D
b110 H
b110 h
b110 (
b110 >
b110 [
b110 &
b110 =
b110 X
b110 \
0!
#57
b1111111111111100 )
b1111111111111100 `
b1111111111111100 f
bx ,
bx W
bx c
b1111111100 Y
b110 0
b110 C
b110 I
b1111111111111100 /
b1111111111111100 J
b1111111111111100 K
b1111111111111100 V
b1111111111111100 b
15
b100000001000000 F
b1111111111110110 1
b1111111111110110 D
b1111111111110110 H
b1111111111110110 (
b1111111111110110 >
b1111111111110110 [
b10 '
b10 :
b10 ]
b10 A
b11 $
b11 ;
b11 _
b11 B
b0 *
b110100000001 -
b110100000001 E
b110100000001 Q
b110100000001 O
b110100000001 T
b110 U
b1010 P
b1000 +
b1000 N
b1000 e
b110 R
b110 S
1!
#58
b1111111111111100 j
0!
#59
b100 )
b100 `
b100 f
b0 ,
b0 W
b0 c
b100 Y
b100 /
b100 J
b100 K
b100 V
b100 b
09
07
b11 2
b11 G
b1111111111111100 0
b1111111111111100 C
b1111111111111100 I
b1111011000000 F
b1111111111111100 &
b1111111111111100 =
b1111111111111100 X
b1111111111111100 \
b11 %
b11 <
b11 ^
b0 1
b0 D
b0 H
b1111111111111011 M
b1111111111111011 ?
b11 @
b0 (
b0 >
b0 [
b0 '
b0 :
b0 ]
b0 A
b110 *
b1100110001111011 -
b1100110001111011 E
b1100110001111011 Q
b1100110001111011 O
b1100110001111011 T
b1000 U
b0 P
b1010 +
b1010 N
b1010 e
b1000 R
b1000 S
1!
#60
0!
#61
b100 )
b100 `
b100 f
b0 ,
b0 W
b0 c
b100 Y
b100 /
b100 J
b100 K
b100 V
b100 b
19
17
05
b0 2
b0 G
b100 0
b100 C
b100 I
b100000000 F
b100 &
b100 =
b100 X
b100 \
b100 %
b100 <
b100 ^
b100 M
b100 ?
b100 @
b101 $
b101 ;
b101 _
b101 B
b1 *
b11010000000100 -
b11010000000100 E
b11010000000100 Q
b11010000000100 O
b11010000000100 T
b1010 U
b10100 P
b1100 +
b1100 N
b1100 e
b1010 R
b1010 S
1!
#62
b100 l
0!
#63
07
15
b10 6
b10 L
b10 2
b10 G
b1010000000000000 F
b100 0
b100 C
b100 I
b100 &
b100 =
b100 X
b100 \
b100 %
b100 <
b100 ^
b100 1
b100 D
b100 H
b0 M
b0 ?
b0 @
b100 (
b100 >
b100 [
b101 '
b101 :
b101 ]
b101 A
b100 $
b100 ;
b100 _
b100 B
b111 *
b1111001010000000 -
b1111001010000000 E
b1111001010000000 Q
b1111001010000000 O
b1111001010000000 T
b1100 U
b1110 P
b1110 +
b1110 N
b1110 e
b1100 R
b1100 S
1!
#64
b100 k
0!
#65
b111 )
b111 `
b111 f
b111 Y
b111 /
b111 J
b111 K
b111 V
b111 b
17
05
b0 6
b0 L
b0 2
b0 G
b1 0
b1 C
b1 I
b10000001000000 F
b110 1
b110 D
b110 H
b110 &
b110 =
b110 X
b110 \
b1 %
b1 <
b1 ^
b1 M
b1 ?
b1 @
b110 (
b110 >
b110 [
b1 '
b1 :
b1 ]
b1 A
b1 $
b1 ;
b1 _
b1 B
b1 *
b10010010000001 -
b10010010000001 E
b10010010000001 Q
b10010010000001 O
b10010010000001 T
b100 U
b1000 P
b110 +
b110 N
b110 e
b100 R
b100 S
1!
#66
b1000 )
b1000 `
b1000 f
b1000 Y
b1000 /
b1000 J
b1000 K
b1000 V
b1000 b
b111 1
b111 D
b111 H
b111 h
b111 (
b111 >
b111 [
b111 &
b111 =
b111 X
b111 \
0!
